module github.com/hung0913208/go-algorithm

go 1.20

require (
	github.com/getsentry/sentry-go v0.21.0
	github.com/golang-collections/collections v0.0.0-20130729185459-604e922904d3
	github.com/influxdata/influxdb-client-go/v2 v2.12.3
	github.com/memcachier/mc/v3 v3.0.3
	github.com/redis/go-redis/extra/redisotel/v9 v9.0.5
	github.com/redis/go-redis/v9 v9.0.5
	github.com/uptrace/opentelemetry-go-extra/otelgorm v0.2.1
	github.com/uptrace/uptrace-go v1.16.0
	go.opentelemetry.io/otel v1.16.0
	go.opentelemetry.io/otel/trace v1.16.0
	gorm.io/driver/bigquery v1.2.0
	gorm.io/driver/mysql v1.5.1
	gorm.io/driver/postgres v1.5.2
	gorm.io/gorm v1.25.1
)

require (
	cloud.google.com/go v0.110.0 // indirect
	cloud.google.com/go/bigquery v1.50.0 // indirect
	cloud.google.com/go/compute v1.19.0 // indirect
	cloud.google.com/go/compute/metadata v0.2.3 // indirect
	cloud.google.com/go/iam v0.13.0 // indirect
	github.com/andybalholm/brotli v1.0.5 // indirect
	github.com/apache/arrow/go/v11 v11.0.0 // indirect
	github.com/apache/thrift v0.16.0 // indirect
	github.com/cenkalti/backoff/v4 v4.2.1 // indirect
	github.com/cespare/xxhash/v2 v2.2.0 // indirect
	github.com/deepmap/oapi-codegen v1.8.2 // indirect
	github.com/dgryski/go-rendezvous v0.0.0-20200823014737-9f7001d12a5f // indirect
	github.com/go-logr/logr v1.2.4 // indirect
	github.com/go-logr/stdr v1.2.2 // indirect
	github.com/go-sql-driver/mysql v1.7.0 // indirect
	github.com/goccy/go-json v0.9.11 // indirect
	github.com/golang/groupcache v0.0.0-20210331224755-41bb18bfe9da // indirect
	github.com/golang/protobuf v1.5.3 // indirect
	github.com/golang/snappy v0.0.4 // indirect
	github.com/google/flatbuffers v2.0.8+incompatible // indirect
	github.com/google/go-cmp v0.5.9 // indirect
	github.com/google/uuid v1.3.0 // indirect
	github.com/googleapis/enterprise-certificate-proxy v0.2.3 // indirect
	github.com/googleapis/gax-go/v2 v2.7.1 // indirect
	github.com/grpc-ecosystem/grpc-gateway/v2 v2.15.2 // indirect
	github.com/influxdata/line-protocol v0.0.0-20200327222509-2487e7298839 // indirect
	github.com/jackc/pgpassfile v1.0.0 // indirect
	github.com/jackc/pgservicefile v0.0.0-20221227161230-091c0ba34f0a // indirect
	github.com/jackc/pgx/v5 v5.3.1 // indirect
	github.com/jinzhu/inflection v1.0.0 // indirect
	github.com/jinzhu/now v1.1.5 // indirect
	github.com/klauspost/asmfmt v1.3.2 // indirect
	github.com/klauspost/compress v1.16.0 // indirect
	github.com/klauspost/cpuid/v2 v2.0.9 // indirect
	github.com/minio/asm2plan9s v0.0.0-20200509001527-cdd76441f9d8 // indirect
	github.com/minio/c2goasm v0.0.0-20190812172519-36a3d3bbc4f3 // indirect
	github.com/pierrec/lz4/v4 v4.1.15 // indirect
	github.com/pkg/errors v0.9.1 // indirect
	github.com/redis/go-redis/extra/rediscmd/v9 v9.0.5 // indirect
	github.com/sirupsen/logrus v1.9.0 // indirect
	github.com/uptrace/opentelemetry-go-extra/otelsql v0.2.1 // indirect
	github.com/zeebo/xxh3 v1.0.2 // indirect
	go.opencensus.io v0.24.0 // indirect
	go.opentelemetry.io/contrib/instrumentation/runtime v0.42.0 // indirect
	go.opentelemetry.io/otel/exporters/otlp/internal/retry v1.16.0 // indirect
	go.opentelemetry.io/otel/exporters/otlp/otlpmetric v0.39.0 // indirect
	go.opentelemetry.io/otel/exporters/otlp/otlpmetric/otlpmetricgrpc v0.39.0 // indirect
	go.opentelemetry.io/otel/exporters/otlp/otlptrace v1.16.0 // indirect
	go.opentelemetry.io/otel/exporters/otlp/otlptrace/otlptracegrpc v1.16.0 // indirect
	go.opentelemetry.io/otel/exporters/stdout/stdouttrace v1.16.0 // indirect
	go.opentelemetry.io/otel/metric v1.16.0 // indirect
	go.opentelemetry.io/otel/sdk v1.16.0 // indirect
	go.opentelemetry.io/otel/sdk/metric v0.39.0 // indirect
	go.opentelemetry.io/proto/otlp v0.19.0 // indirect
	golang.org/x/crypto v0.8.0 // indirect
	golang.org/x/mod v0.8.0 // indirect
	golang.org/x/net v0.10.0 // indirect
	golang.org/x/oauth2 v0.6.0 // indirect
	golang.org/x/sync v0.1.0 // indirect
	golang.org/x/sys v0.8.0 // indirect
	golang.org/x/text v0.9.0 // indirect
	golang.org/x/tools v0.6.0 // indirect
	golang.org/x/xerrors v0.0.0-20220907171357-04be3eba64a2 // indirect
	google.golang.org/api v0.114.0 // indirect
	google.golang.org/appengine v1.6.7 // indirect
	google.golang.org/genproto v0.0.0-20230410155749-daa745c078e1 // indirect
	google.golang.org/grpc v1.55.0 // indirect
	google.golang.org/protobuf v1.30.0 // indirect
)
